…
This repository contains data on reported COVID-19 cases in Germany and
its federal states that is published daily by the Robert-Koch-Institut
(RKI).

``` r
library(tidyverse)
corona_rki <- read_csv("data/corona_deu_rki.csv")
corona_rki %>% 
  arrange(desc(Datum), Bundesland) %>% 
  print(n = 16)
```

    ## # A tibble: 890 x 6
    ##    Datum      Bundesland      Fallzahl Todeszahl Fallzahl_neu Todeszahl_neu
    ##    <date>     <chr>              <dbl>     <dbl>        <dbl>         <dbl>
    ##  1 2020-04-28 Baden-Württemb…    31196      1269          153            20
    ##  2 2020-04-28 Bayern             41406      1681          336            60
    ##  3 2020-04-28 Berlin              5669       127           31             2
    ##  4 2020-04-28 Brandenburg         2747       106           26             6
    ##  5 2020-04-28 Bremen               759        27            5             0
    ##  6 2020-04-28 Hamburg             4505       142           30             0
    ##  7 2020-04-28 Hessen              8026       333           47            13
    ##  8 2020-04-28 Mecklenburg-Vo…      675        17            1             1
    ##  9 2020-04-28 Niedersachsen       9926       394           79             3
    ## 10 2020-04-28 Nordrhein-West…    32184      1171          305            40
    ## 11 2020-04-28 Rheinland-Pfalz     5928       157           49             5
    ## 12 2020-04-28 Saarland            2509       123            6             2
    ## 13 2020-04-28 Sachsen             4490       148           32             1
    ## 14 2020-04-28 Sachsen-Anhalt      1520        39            5             3
    ## 15 2020-04-28 Schleswig-Hols…     2653       101           15             3
    ## 16 2020-04-28 Thüringen           2144        78           24             4
    ## # … with 874 more rows
…
